…
``` r
dennys2 %>% 
  inner_join(states, by=c('state'='abbreviation')) %>% 
  mutate(per_1000_sq_mi=total/area) %>% 
  arrange(desc(per_1000_sq_mi))
```

    ## # A tibble: 51 x 5
    ##    state total name                     area per_1000_sq_mi
    ##    <chr> <int> <chr>                   <dbl>          <dbl>
    ##  1 DC        2 District of Columbia     68.3       0.0293  
    ##  2 RI        5 Rhode Island           1545.        0.00324 
    ##  3 CA      403 California           163695.        0.00246 
    ##  4 CT       12 Connecticut            5543.        0.00216 
    ##  5 FL      140 Florida               65758.        0.00213 
    ##  6 MD       26 Maryland              12406.        0.00210 
    ##  7 NJ       10 New Jersey             8723.        0.00115 
    ##  8 NY       56 New York              54555.        0.00103 
    ##  9 IN       37 Indiana               36420.        0.00102 
    ## 10 OH       44 Ohio                  44826.        0.000982
    ## # … with 41 more rows
…
**Response**: DC has the most

#### La Quinta

Similarly as we previously did for Denny’s, calculate the number of La
Quinta locations *per* thousand square miles.

``` r
laquinta2 %>% 
  inner_join(states, by=c('state'='abbreviation')) %>% 
  mutate(per_1000_sq_mi=total/area) %>% 
  arrange(desc(per_1000_sq_mi))
```

    ## # A tibble: 51 x 5
    ##    state total name                     area per_1000_sq_mi
    ##    <chr> <int> <chr>                   <dbl>          <dbl>
    ##  1 DC        1 District of Columbia     68.3       0.0146  
    ##  2 RI        2 Rhode Island           1545.        0.00129 
    ##  3 FL       74 Florida               65758.        0.00113 
    ##  4 CT        6 Connecticut            5543.        0.00108 
    ##  5 MD       13 Maryland              12406.        0.00105 
    ##  6 TX      237 Texas                268596.        0.000882
    ##  7 TN       30 Tennessee             42144.        0.000712
    ##  8 GA       41 Georgia               59425.        0.000690
    ##  9 NJ        5 New Jersey             8723.        0.000573
    ## 10 MA        6 Massachusetts         10554.        0.000568
    ## # … with 41 more rows
…
